<svg id="Agrupar_34" data-name="Agrupar 34" xmlns="http://www.w3.org/2000/svg" width="240.132" height="81.697" viewBox="0 0 240.132 81.697">
  <g id="Agrupar_27" data-name="Agrupar 27" transform="translate(0 0)">
    <g id="Agrupar_24" data-name="Agrupar 24" transform="translate(20.581 19.327)">
      <circle id="Elipse_2" data-name="Elipse 2" cx="3.079" cy="3.079" r="3.079" fill="#d4d9d5"/>
    </g>
    <g id="Agrupar_25" data-name="Agrupar 25" transform="translate(38.027 19.327)">
      <circle id="Elipse_3" data-name="Elipse 3" cx="3.079" cy="3.079" r="3.079" fill="#d4d9d5"/>
    </g>
    <g id="Agrupar_26" data-name="Agrupar 26">
      <path id="Caminho_22" data-name="Caminho 22" d="M42.645,7.354A25,25,0,0,0,0,24.971V80.044H0A1.655,1.655,0,0,0,1.653,81.7a44.445,44.445,0,0,0,18.871-4.219,47.905,47.905,0,0,0,15.336-11.4,52.589,52.589,0,0,0,10.319-16.7,55.366,55.366,0,0,0,3.763-19.726V25.028A24.791,24.791,0,0,0,42.645,7.354Zm4.048,20.752A43.71,43.71,0,0,0,30.558,31.7H24.344c-5.017,0-9.122-3.763-9.122-8.324v-.228c.114-4.9,3.82-8.894,8.324-8.894A7.685,7.685,0,0,1,29.3,16.875a9.719,9.719,0,0,1,2.394,6.5,1.655,1.655,0,0,0,1.653,1.653h.114a1.655,1.655,0,0,0,1.653-1.653c0-5.017,3.763-9.122,8.324-9.122h.4a21.829,21.829,0,0,1,2.851,10.718ZM3.25,24.971A21.689,21.689,0,0,1,40.307,9.635c.456.456.912.969,1.368,1.482A11.733,11.733,0,0,0,33.409,17.1a11.853,11.853,0,0,0-1.71-2.451,10.841,10.841,0,0,0-8.153-3.706h0C17.16,11,11.972,16.59,11.972,23.375a.723.723,0,0,0,.057.342c.228,6.214,5.587,11.174,12.257,11.231a47.289,47.289,0,0,0-10.148,8.381A52.651,52.651,0,0,0,3.307,61.173v-36.2ZM43.1,48.175A50.15,50.15,0,0,1,33.409,63.91a43.651,43.651,0,0,1-26,14.139C18.244,70.01,20.98,64.537,23.432,59.634c2.28-4.561,4.276-8.495,12.657-13.911a1.644,1.644,0,0,0-1.824-2.737c-9.122,5.929-11.4,10.433-13.8,15.222C17.9,63.34,15.222,68.585,3.25,77.022A50.252,50.252,0,0,1,16.362,45.666,44.608,44.608,0,0,1,31.185,35a1.409,1.409,0,0,0,.513-.228A42.487,42.487,0,0,1,46.521,31.47,48.273,48.273,0,0,1,43.1,48.175Z" transform="translate(0 0)" fill="#d4d9d5"/>
    </g>
  </g>
  <g id="Agrupar_33" data-name="Agrupar 33" transform="translate(69.953 1.938)">
    <g id="Agrupar_28" data-name="Agrupar 28">
      <path id="Caminho_23" data-name="Caminho 23" d="M134.9,8.433V37.68h-4.39V8.433H122.7V4.1h20.011V8.433Z" transform="translate(-122.7 -3.701)" fill="#d4d9d5"/>
      <path id="Caminho_24" data-name="Caminho 24" d="M190.9,8.417a16.528,16.528,0,0,1,5.017,12.143A16.528,16.528,0,0,1,190.9,32.7a17.2,17.2,0,0,1-24.287,0A16.528,16.528,0,0,1,161.6,20.56a16.528,16.528,0,0,1,5.017-12.143,17.2,17.2,0,0,1,24.287,0ZM178.76,7.733A12.356,12.356,0,0,0,169.7,11.5a12.356,12.356,0,0,0-3.763,9.065,12.356,12.356,0,0,0,3.763,9.065,12.8,12.8,0,0,0,18.13,0,12.356,12.356,0,0,0,3.763-9.065,12.356,12.356,0,0,0-3.763-9.065A12.356,12.356,0,0,0,178.76,7.733Z" transform="translate(-139.423 -3.4)" fill="#d4d9d5"/>
      <path id="Caminho_25" data-name="Caminho 25" d="M257.61,29.4l3.25,2.908c-3.991,3.649-8.153,5.416-12.6,5.416A16.528,16.528,0,0,1,236.117,32.7,16.437,16.437,0,0,1,231.1,20.56a16.528,16.528,0,0,1,5.017-12.143A16.437,16.437,0,0,1,248.26,3.4c4.447,0,8.609,1.824,12.6,5.416l-3.25,2.965a13.812,13.812,0,0,0-9.35-3.991,12.4,12.4,0,0,0-9.008,3.706A12.229,12.229,0,0,0,235.49,20.5a12.356,12.356,0,0,0,3.763,9.065,12.176,12.176,0,0,0,9.008,3.706C251.453,33.331,254.589,32.02,257.61,29.4Z" transform="translate(-169.3 -3.4)" fill="#d4d9d5"/>
      <path id="Caminho_26" data-name="Caminho 26" d="M301.838,4.1l12.2,33.58H309.42l-4.333-11.858h-8.894L291.918,37.68H287.3L299.5,4.1h2.337Zm1.71,17.331L300.7,13.564l-2.851,7.868Z" transform="translate(-193.459 -3.701)" fill="#d4d9d5"/>
    </g>
    <g id="Agrupar_29" data-name="Agrupar 29" transform="translate(1.653 42.587)">
      <path id="Caminho_27" data-name="Caminho 27" d="M152.11,104.1,155.36,107c-3.991,3.649-8.153,5.416-12.6,5.416a17.173,17.173,0,0,1-12.143-29.3A16.437,16.437,0,0,1,142.76,78.1c4.447,0,8.609,1.824,12.6,5.416l-3.25,2.965a13.812,13.812,0,0,0-9.35-3.991,12.4,12.4,0,0,0-9.008,3.706A12.229,12.229,0,0,0,129.99,95.2a12.356,12.356,0,0,0,3.763,9.065,12.176,12.176,0,0,0,9.008,3.706C146.01,108.088,149.089,106.72,152.11,104.1Z" transform="translate(-125.6 -78.1)" fill="#d4d9d5"/>
      <path id="Caminho_28" data-name="Caminho 28" d="M212.3,83.117A17.2,17.2,0,1,1,200.16,78.1,16.528,16.528,0,0,1,212.3,83.117Zm-12.143-.684a12.847,12.847,0,1,0,9.065,3.763A12.356,12.356,0,0,0,200.16,82.433Z" transform="translate(-150.275 -78.1)" fill="#d4d9d5"/>
      <path id="Caminho_29" data-name="Caminho 29" d="M261.724,101.662h-3.991V112.38H253.4V78.8h9.521a11.758,11.758,0,0,1,6.841,3.307,10.93,10.93,0,0,1,3.307,8.039,11.057,11.057,0,0,1-3.307,8.1,10.107,10.107,0,0,1-3.535,2.623l7.468,11.459h-5.245ZM257.733,83.19V97.272h3.991a7.041,7.041,0,0,0,0-14.082Z" transform="translate(-180.539 -78.401)" fill="#d4d9d5"/>
      <path id="Caminho_30" data-name="Caminho 30" d="M315.015,78.8h4.39v23.66A12.108,12.108,0,0,1,316.1,109.3a11.431,11.431,0,0,1-19.5-8.039V78.8h4.39v22.405A7.007,7.007,0,0,0,308,108.218a6.885,6.885,0,0,0,5.017-2.052,6.757,6.757,0,0,0,2.052-4.96V78.8Z" transform="translate(-199.111 -78.401)" fill="#d4d9d5"/>
      <path id="Caminho_31" data-name="Caminho 31" d="M357.383,105.2a7.452,7.452,0,0,1-1.881,5.416,6.722,6.722,0,0,1-4.9,2.052,6.631,6.631,0,0,1-4.9-2.052,7.315,7.315,0,0,1-2-5.416l3.421-1.368c.4,2.109.912,3.421,1.482,3.934a2.6,2.6,0,0,0,1.824.57h.057a2.752,2.752,0,0,0,2-.8,3.884,3.884,0,0,0,.627-2.566V78.8h4.333v26.4Z" transform="translate(-219.358 -78.401)" fill="#d4d9d5"/>
      <path id="Caminho_32" data-name="Caminho 32" d="M388.838,78.8l12.2,33.58H396.42l-4.333-11.858h-8.894l-4.276,11.858H374.3L386.5,78.8Zm1.653,17.388-2.851-7.868-2.851,7.868Z" transform="translate(-232.513 -78.401)" fill="#d4d9d5"/>
    </g>
    <g id="Agrupar_30" data-name="Agrupar 30" transform="translate(136.2 7.468)">
      <path id="Caminho_33" data-name="Caminho 33" d="M363.2,16.5a8.614,8.614,0,0,1,6.385,2.337,8.6,8.6,0,0,1,0,12.143,8.847,8.847,0,0,1-6.385,2.337h-1.6V16.5Zm.57,2.166V31.038a5.758,5.758,0,0,0,4.219-1.653,6.332,6.332,0,0,0,0-9.008A5.584,5.584,0,0,0,363.766,18.666Z" transform="translate(-361.6 -16.5)" fill="#d4d9d5"/>
      <path id="Caminho_34" data-name="Caminho 34" d="M389.1,16.5l6.1,16.761h-2.281l-2.166-5.929H386.3l-2.166,5.929H381.8L387.9,16.5h1.2Zm.855,8.666-1.425-3.934L387.1,25.166Z" transform="translate(-370.284 -16.5)" fill="#d4d9d5"/>
    </g>
    <g id="Agrupar_32" data-name="Agrupar 32" transform="translate(134.262 29.76)">
      <g id="Agrupar_31" data-name="Agrupar 31">
        <rect id="Retângulo_26" data-name="Retângulo 26" width="28.677" height="2.566" fill="#d4d9d5"/>
      </g>
    </g>
  </g>
</svg>
